cntry_name,adm1_name,adm2_name,cntry_code,rowcacode1,rowcacode2
Burkina Faso,Boucle du Mouhoun,Bale,BFA,BFA046,BFA046001
Burkina Faso,Boucle du Mouhoun,Mouhoun,BFA,BFA046,BFA046004
Burkina Faso,Boucle du Mouhoun,Nayala,BFA,BFA046,BFA046005
Burkina Faso,Centre-Ouest,Boulkiemde,BFA,BFA050,BFA050001
Burkina Faso,Centre-Ouest,Sanguie,BFA,BFA050,BFA050002
Burkina Faso,Centre-Ouest,Ziro,BFA,BFA050,BFA050004
Burkina Faso,Sud-Ouest,Bougouriba,BFA,BFA057,BFA057001
Burkina Faso,Hauts-Bassins,Houet,BFA,BFA053,BFA053001
Burkina Faso,Hauts-Bassins,Tuy,BFA,BFA053,BFA053003
Burkina Faso,Est,Gnagna,BFA,BFA052,BFA052001
Burkina Faso,Est,Gourma,BFA,BFA052,BFA052002
Burkina Faso,Est,Komonjdjari,BFA,BFA052,BFA052003
Burkina Faso,Centre-Est,Kouritenga,BFA,BFA048,BFA048003
Burkina Faso,Centre,Kadiogo,BFA,BFA013,BFA013000
Burkina Faso,Plateau Central,Ganzourgou,BFA,BFA055,BFA055001
Burkina Faso,Plateau Central,Kourweogo,BFA,BFA055,BFA055002
Burkina Faso,Plateau Central,Oubritenga,BFA,BFA055,BFA055003
Burkina Faso,Nord,Loroum,BFA,BFA054,BFA054001
Burkina Faso,Nord,Passore,BFA,BFA054,BFA054002
Burkina Faso,Nord,Zondoma,BFA,BFA054,BFA054004
Burkina Faso,Centre-Sud,Bazega,BFA,BFA051,BFA051001
Burkina Faso,Centre-Sud,Zoundweogo,BFA,BFA051,BFA051003
Burkina Faso,Centre-Nord,Bam,BFA,BFA049,BFA049001
Burkina Faso,Centre-Nord,Namentenga,BFA,BFA049,BFA049002
Burkina Faso,Centre-Nord,Sanmatenga,BFA,BFA049,BFA049003
Burkina Faso,Hauts-Bassins,Kenedougou,BFA,BFA053,BFA053002
Burkina Faso,Cascades,Leraba,BFA,BFA047,BFA047002
Burkina Faso,Cascades,Comoe,BFA,BFA047,BFA047001
Burkina Faso,Sud-Ouest,Noumbiel,BFA,BFA057,BFA057003
Burkina Faso,Sud-Ouest,Poni,BFA,BFA057,BFA057004
Burkina Faso,Sud-Ouest,Ioba,BFA,BFA057,BFA057002
Burkina Faso,Centre-Ouest,Sissili,BFA,BFA050,BFA050003
Burkina Faso,Centre-Sud,Nahouri,BFA,BFA051,BFA051002
Burkina Faso,Centre-Est,Boulgou,BFA,BFA048,BFA048001
Burkina Faso,Centre-Est,Koulpelogo,BFA,BFA048,BFA048002
Burkina Faso,Est,Kompienga,BFA,BFA052,BFA052004
Burkina Faso,Est,Tapoa,BFA,BFA052,BFA052005
Burkina Faso,Sahel,Yagha,BFA,BFA056,BFA056004
Burkina Faso,Sahel,Seno,BFA,BFA056,BFA056002
Burkina Faso,Sahel,Oudalan,BFA,BFA056,BFA056001
Burkina Faso,Sahel,Soum,BFA,BFA056,BFA056003
Burkina Faso,Nord,Yatenga,BFA,BFA054,BFA054003
Burkina Faso,Boucle du Mouhoun,Sourou,BFA,BFA046,BFA046006
Burkina Faso,Boucle du Mouhoun,Kossi,BFA,BFA046,BFA046003
Burkina Faso,Boucle du Mouhoun,Banwa,BFA,BFA046,BFA046002
Cameroon,Nord,Mayo-Louti,CMR,CMR006,CMR006003
Cameroon,Nord,Benoue,CMR,CMR006,CMR006001
Cameroon,Nord,Faro,CMR,CMR006,CMR006002
Cameroon,Extreme-Nord,Mayo-Tsanaga,CMR,CMR004,CMR004006
Cameroon,Extreme-Nord,Diamare,CMR,CMR004,CMR004001
Cameroon,Extreme-Nord,Mayo-Kani,CMR,CMR004,CMR004004
Cameroon,Adamaoua,Vina,CMR,CMR001,CMR001005
Cameroon,Adamaoua,Djerem,CMR,CMR001,CMR001001
Cameroon,Centre,Nyong-et-Kelle,CMR,CMR002,CMR002008
Cameroon,Centre,Nyong-et-Soo,CMR,CMR002,CMR002010
Cameroon,Centre,Nyong-et-Mfoumou,CMR,CMR002,CMR002009
Cameroon,Centre,Mefou-et-Akono,CMR,CMR002,CMR002006
Cameroon,Centre,Mfoundi,CMR,CMR002,CMR002007
Cameroon,Centre,Lekie,CMR,CMR002,CMR002002
Cameroon,Centre,Mefou-et-Afamba,CMR,CMR002,CMR002005
Cameroon,Centre,Mbam-et-Inoubou,CMR,CMR002,CMR002003
Cameroon,Centre,Mbam-et-Kim,CMR,CMR002,CMR002004
Cameroon,Centre,Haute-Sanaga,CMR,CMR002,CMR002001
Cameroon,Sud-Ouest,Manyu,CMR,CMR010,CMR010004
Cameroon,Sud-Ouest,Lebialem,CMR,CMR010,CMR010003
Cameroon,Sud-Ouest,Kupe-Manenguba,CMR,CMR010,CMR010002
Cameroon,Sud-Ouest,Fako,CMR,CMR010,CMR010001
Cameroon,Sud-Ouest,Meme,CMR,CMR010,CMR010005
Cameroon,Sud,Ocean,CMR,CMR009,CMR009003
Cameroon,Sud,Mvila,CMR,CMR009,CMR009002
Cameroon,Sud,Dja-Et-Lobo,CMR,CMR009,CMR009001
Cameroon,Ouest,Noun,CMR,CMR008,CMR008008
Cameroon,Ouest,Bamboutos,CMR,CMR008,CMR008001
Cameroon,Ouest,Menoua,CMR,CMR008,CMR008005
Cameroon,Ouest,Mifi,CMR,CMR008,CMR008006
Cameroon,Ouest,Haut-Nkam,CMR,CMR008,CMR008002
Cameroon,Ouest,Hauts-Plateaux,CMR,CMR008,CMR008003
Cameroon,Ouest,Nde,CMR,CMR008,CMR008007
Cameroon,Ouest,Koung-Khi,CMR,CMR008,CMR008004
Cameroon,Nord-Ouest,Donga-Mantung,CMR,CMR007,CMR007003
Cameroon,Nord-Ouest,Menchum,CMR,CMR007,CMR007004
Cameroon,Nord-Ouest,Momo,CMR,CMR007,CMR007006
Cameroon,Nord-Ouest,Boyo,CMR,CMR007,CMR007001
Cameroon,Nord-Ouest,Bui,CMR,CMR007,CMR007002
Cameroon,Nord-Ouest,Mezam,CMR,CMR007,CMR007005
Cameroon,Nord-Ouest,Ngo-ketunjia,CMR,CMR007,CMR007007
Cameroon,Littoral,Moungo,CMR,CMR005,CMR005001
Cameroon,Littoral,Sanaga-Maritime,CMR,CMR005,CMR005003
Cameroon,Littoral,Wouri,CMR,CMR005,CMR005004
Cameroon,Littoral,Nkam,CMR,CMR005,CMR005002
Cameroon,Est,Haut-Nyong,CMR,CMR003,CMR003002
Cameroon,Extreme-Nord,Logone-Et-Chari,CMR,CMR004,CMR004002
Cameroon,Extreme-Nord,Mayo-Danay,CMR,CMR004,CMR004003
Cameroon,Extreme-Nord,Mayo-Sava,CMR,CMR004,CMR004005
Cameroon,Adamaoua,Faro-et-Deo,CMR,CMR001,CMR001002
Cameroon,Adamaoua,Mayo-Banyo,CMR,CMR001,CMR001003
Cameroon,Sud-Ouest,Ndian,CMR,CMR010,CMR010006
Cameroon,Sud,Vallee-du-Ntem,CMR,CMR009,CMR009004
Cameroon,Est,Boumba-Et-Ngoko,CMR,CMR003,CMR003001
Cameroon,Est,Kadei,CMR,CMR003,CMR003003
Cameroon,Est,Lom-Et-Djerem,CMR,CMR003,CMR003004
Cameroon,Adamaoua,Mbere,CMR,CMR001,CMR001004
Cameroon,Nord,Mayo-Rey,CMR,CMR006,CMR006004
Gambia,Banjul,Banjul,GMB,GMB001,GMB001001
Gambia,North Bank,Central Baddibu,GMB,GMB004,GMB004001
Gambia,Western,Foni Bintang-Karenai,GMB,GMB006,GMB006001
Gambia,Western,Foni Bondali,GMB,GMB006,GMB006002
Gambia,Western,Foni Brefet,GMB,GMB006,GMB006003
Gambia,Western,Foni Jarrol,GMB,GMB006,GMB006004
Gambia,Western,Foni Kansala,GMB,GMB006,GMB006005
Gambia,Upper River,Fulladu East,GMB,GMB005,GMB005001
Gambia,Central River,Fulladu West,GMB,GMB002,GMB002001
Gambia,Central River,Janjanbureh,GMB,GMB002,GMB002002
Gambia,Lower River,Jarra Central,GMB,GMB003,GMB003001
Gambia,Lower River,Jarra East,GMB,GMB003,GMB003002
Gambia,Lower River,Jarra West,GMB,GMB003,GMB003003
Gambia,North Bank,Jokadu,GMB,GMB004,GMB004002
Gambia,Upper River,Kantora,GMB,GMB005,GMB005002
Gambia,Lower River,Kiang Central,GMB,GMB003,GMB003004
Gambia,Lower River,Kiang East,GMB,GMB003,GMB003005
Gambia,Lower River,Kiang West,GMB,GMB003,GMB003006
Gambia,Western,Kombo Central,GMB,GMB006,GMB006006
Gambia,Western,Kombo East,GMB,GMB006,GMB006007
Gambia,Western,Kombo North,GMB,GMB006,GMB006008
Gambia,Banjul,Kanifing,GMB,GMB001,GMB001002
Gambia,Western,Kombo South,GMB,GMB006,GMB006009
Gambia,North Bank,Lower Baddibu,GMB,GMB004,GMB004003
Gambia,North Bank,Lower Niumi,GMB,GMB004,GMB004004
Gambia,Central River,Lower Saloum,GMB,GMB002,GMB002003
Gambia,Central River,Niamina Dankunku,GMB,GMB002,GMB002004
Gambia,Central River,Niamina East,GMB,GMB002,GMB002005
Gambia,Central River,Niamina West,GMB,GMB002,GMB002006
Gambia,Central River,Niani,GMB,GMB002,GMB002007
Gambia,Central River,Nianija,GMB,GMB002,GMB002008
Gambia,Central River,Sami,GMB,GMB002,GMB002009
Gambia,Upper River,Sandu,GMB,GMB005,GMB005003
Gambia,North Bank,Upper Baddibu,GMB,GMB004,GMB004005
Gambia,North Bank,Upper Niumi,GMB,GMB004,GMB004006
Gambia,Central River,Upper Saloum,GMB,GMB002,GMB002010
Gambia,Upper River,Wuli,GMB,GMB005,GMB005004
Mali,Kayes,Kayes,MLI,MLI001,MLI001001
Mali,Kayes,Bafoulabe,MLI,MLI001,MLI001002
Mali,Kayes,Diema,MLI,MLI001,MLI001003
Mali,Kayes,Kenieba,MLI,MLI001,MLI001004
Mali,Kayes,Kita,MLI,MLI001,MLI001005
Mali,Gao,Bourem,MLI,MLI007,MLI007003
Mali,Kayes,Nioro,MLI,MLI001,MLI001006
Mali,Kayes,Yelimane,MLI,MLI001,MLI001007
Mali,Koulikoro,Koulikoro,MLI,MLI002,MLI002001
Mali,Koulikoro,Banamba,MLI,MLI002,MLI002002
Mali,Koulikoro,Nara,MLI,MLI002,MLI002007
Mali,Sikasso,Sikasso,MLI,MLI003,MLI003001
Mali,Sikasso,Bougouni,MLI,MLI003,MLI003002
Mali,Sikasso,Kadiolo,MLI,MLI003,MLI003003
Mali,Sikasso,Kolondieba,MLI,MLI003,MLI003004
Mali,Koulikoro,DioÃƒÂla,MLI,MLI002,MLI002003
Mali,Sikasso,Yanfolila,MLI,MLI003,MLI003006
Mali,Koulikoro,Kangaba,MLI,MLI002,MLI002004
Mali,Koulikoro,Kati,MLI,MLI002,MLI002005
Mali,Koulikoro,Kolokani,MLI,MLI002,MLI002006
Mali,Sikasso,Koutiala,MLI,MLI003,MLI003005
Mali,Sikasso,Yorosso,MLI,MLI003,MLI003007
Mali,Segou,Segou,MLI,MLI004,MLI004001
Mali,Segou,Niono,MLI,MLI004,MLI004005
Mali,Segou,Baraoueli,MLI,MLI004,MLI004002
Mali,Segou,San,MLI,MLI004,MLI004006
Mali,Segou,Bla,MLI,MLI004,MLI004003
Mali,Segou,Macina,MLI,MLI004,MLI004004
Mali,Segou,Tominian,MLI,MLI004,MLI004007
Mali,Mopti,Tenenkoun,MLI,MLI005,MLI005007
Mali,Mopti,Mopti,MLI,MLI005,MLI005001
Mali,Mopti,Bandiagara,MLI,MLI005,MLI005002
Mali,Mopti,Bankass,MLI,MLI005,MLI005003
Mali,Mopti,Djenne,MLI,MLI005,MLI005004
Mali,Mopti,Douentza,MLI,MLI005,MLI005005
Mali,Mopti,Koro,MLI,MLI005,MLI005006
Mali,Mopti,Youwarou,MLI,MLI005,MLI005008
Mali,Gao,Gao,MLI,MLI007,MLI007001
Mali,Tombouctou,Tombouctou,MLI,MLI006,MLI006001
Mali,Tombouctou,Dire,MLI,MLI006,MLI006002
Mali,Tombouctou,Goundam,MLI,MLI006,MLI006003
Mali,Tombouctou,Gourma-rharous,MLI,MLI006,MLI006004
Mali,Gao,Ansongo,MLI,MLI007,MLI007002
Mali,Tombouctou,NiafounkÃƒÂ©,MLI,MLI006,MLI006005
Mali,Gao,Menaka,MLI,MLI007,MLI007004
Mali,Kidal,Kidal,MLI,MLI008,MLI008001
Mali,Kidal,AbeÃƒÂbara,MLI,MLI008,MLI008002
Mali,Kidal,Tessalit,MLI,MLI008,MLI008003
Mali,Kidal,Tin Essako,MLI,MLI008,MLI008004
Mali,Bamako,Bamako,MLI,MLI009,MLI009001
Mauritania,Dakhlet-Nouadhibou,Nouadhibou,MRT,MRT004,MRT004000
Mauritania,Brakna,Aleg,MRT,MRT003,MRT003001
Mauritania,Brakna,Bababe,MRT,MRT003,MRT003002
Mauritania,Brakna,Boghe,MRT,MRT003,MRT003003
Mauritania,Brakna,Maghta Lahjar,MRT,MRT003,MRT003004
Mauritania,Brakna,M'Bagne,MRT,MRT003,MRT003005
Mauritania,Assaba,Barkeol,MRT,MRT002,MRT002001
Mauritania,Assaba,Boumdeid,MRT,MRT002,MRT002002
Mauritania,Assaba,Guerrou,MRT,MRT002,MRT002003
Mauritania,Assaba,Kiffa,MRT,MRT002,MRT002005
Mauritania,Assaba,Kankossa,MRT,MRT002,MRT002004
Mauritania,Adrar,Aoujeft,MRT,MRT001,MRT001001
Mauritania,Adrar,Atar,MRT,MRT001,MRT001002
Mauritania,Hodh El Gharbi,Tintane,MRT,MRT008,MRT008004
Mauritania,Hodh El Gharbi,Tamchekett,MRT,MRT008,MRT008003
Mauritania,Hodh El Gharbi,Kobeni,MRT,MRT008,MRT008002
Mauritania,Guidimakha,Ould Yenge,MRT,MRT006,MRT006001
Mauritania,Hodh Ech Chargi,Amourj,MRT,MRT007,MRT007001
Mauritania,Hodh Ech Chargi,Djigueni,MRT,MRT007,MRT007003
Mauritania,Hodh Ech Chargi,Nema,MRT,MRT007,MRT007004
Mauritania,Hodh Ech Chargi,Timbedra,MRT,MRT007,MRT007006
Mauritania,Gorgol,Kaedi,MRT,MRT005,MRT005001
Mauritania,Gorgol,Maghama,MRT,MRT005,MRT005002
Mauritania,Gorgol,Monguel,MRT,MRT005,MRT005004
Mauritania,Gorgol,M'Bout,MRT,MRT005,MRT005003
Mauritania,Trarza,Rosso,MRT,MRT013,MRT013006
Mauritania,Trarza,Mederdra,MRT,MRT013,MRT013003
Mauritania,Trarza,Ouad Naga,MRT,MRT013,MRT013004
Mauritania,Trarza,Keur-Macene,MRT,MRT013,MRT013002
Mauritania,Tiris-Zemmour,Zoueratt,MRT,MRT012,MRT012003
Mauritania,Tiris-Zemmour,F'Derik,MRT,MRT012,MRT012002
Mauritania,Tagant,Moudjeria,MRT,MRT011,MRT011001
Mauritania,Tagant,Tidjikja,MRT,MRT011,MRT011003
Mauritania,Tagant,Tichitt,MRT,MRT011,MRT011002
Mauritania,Guidimakha,Selibaby,MRT,MRT006,MRT006002
Mauritania,Hodh Ech Chargi,Bassikounou,MRT,MRT007,MRT007002
Mauritania,Trarza,Boutilimit,MRT,MRT013,MRT013001
Mauritania,Trarza,R'kiz,MRT,MRT013,MRT013005
Mauritania,Hodh El Gharbi,Aioun,MRT,MRT008,MRT008001
Mauritania,Tiris-Zemmour,Bir Mogrein,MRT,MRT012,MRT012001
Mauritania,Nouakchott,Nouakchott,MRT,MRT010,MRT010010
Mauritania,Adrar,Ouadane,MRT,MRT001,MRT001004
Mauritania,Hodh Ech Chargi,Oualata,MRT,MRT007,MRT007005
Mauritania,Inchiri,Akjoujt,MRT,MRT009,MRT009000
Mauritania,Adrar,Chinguity,MRT,MRT001,MRT001003
Nigeria,Abia,Aba North,NGA,NGA001,NGA001001
Nigeria,Abia,Aba South,NGA,NGA001,NGA001002
Nigeria,Abia,Arochukwu,NGA,NGA001,NGA001003
Nigeria,Abia,Bende,NGA,NGA001,NGA001004
Nigeria,Abia,Ikwuano,NGA,NGA001,NGA001005
Nigeria,Abia,Isiala-Ngwa North,NGA,NGA001,NGA001006
Nigeria,Abia,Isiala-Ngwa South,NGA,NGA001,NGA001007
Nigeria,Abia,Isuikwato,NGA,NGA001,NGA001008
Nigeria,Abia,Obi Nwa,NGA,NGA001,NGA001009
Nigeria,Abia,Ohafia,NGA,NGA001,NGA001010
Nigeria,Abia,Osisioma Ngwa,NGA,NGA001,NGA001011
Nigeria,Abia,Ugwunagbo,NGA,NGA001,NGA001012
Nigeria,Abia,Ukwa East,NGA,NGA001,NGA001013
Nigeria,Abia,Ukwa West,NGA,NGA001,NGA001014
Nigeria,Abia,Umu-Neochi,NGA,NGA001,NGA001017
Nigeria,Abia,Umuahia North,NGA,NGA001,NGA001015
Nigeria,Abia,Umuahia South,NGA,NGA001,NGA001016
Nigeria,Adamawa,Demsa,NGA,NGA002,NGA002001
Nigeria,Adamawa,Gireri,NGA,NGA002,NGA002004
Nigeria,Adamawa,Gombi,NGA,NGA002,NGA002005
Nigeria,Adamawa,Guyuk,NGA,NGA002,NGA002006
Nigeria,Adamawa,Hong,NGA,NGA002,NGA002007
Nigeria,Adamawa,Lamurde,NGA,NGA002,NGA002009
Nigeria,Adamawa,Mayo-Belwa,NGA,NGA002,NGA002012
Nigeria,Adamawa,Numan,NGA,NGA002,NGA002016
Nigeria,Adamawa,Shelleng,NGA,NGA002,NGA002017
Nigeria,Adamawa,Song,NGA,NGA002,NGA002018
Nigeria,Adamawa,Yola North,NGA,NGA002,NGA002020
Nigeria,Adamawa,Yola South,NGA,NGA002,NGA002021
Nigeria,Akwa lbom,Abak,NGA,NGA003,NGA003001
Nigeria,Akwa lbom,Eket,NGA,NGA003,NGA003003
Nigeria,Akwa lbom,Esit Eket,NGA,NGA003,NGA003004
Nigeria,Akwa lbom,Essien Udim,NGA,NGA003,NGA003005
Nigeria,Akwa lbom,Etim Ekpo,NGA,NGA003,NGA003006
Nigeria,Akwa lbom,Etinan,NGA,NGA003,NGA003007
Nigeria,Akwa lbom,Ibesikpo Asutan,NGA,NGA003,NGA003009
Nigeria,Akwa lbom,Ibiono Ibom,NGA,NGA003,NGA003010
Nigeria,Akwa lbom,Ika,NGA,NGA003,NGA003011
Nigeria,Akwa lbom,Ikono,NGA,NGA003,NGA003012
Nigeria,Akwa lbom,Ikot Abasi,NGA,NGA003,NGA003013
Nigeria,Akwa lbom,Ikot Ekpene,NGA,NGA003,NGA003014
Nigeria,Akwa lbom,Ini,NGA,NGA003,NGA003015
Nigeria,Akwa lbom,Itu,NGA,NGA003,NGA003016
Nigeria,Akwa lbom,Mkpat Enin,NGA,NGA003,NGA003018
Nigeria,Akwa lbom,Nsit Atai,NGA,NGA003,NGA003019
Nigeria,Akwa lbom,Nsit Ibom,NGA,NGA003,NGA003020
Nigeria,Akwa lbom,Nsit Ubium,NGA,NGA003,NGA003021
Nigeria,Akwa lbom,Obot Akara,NGA,NGA003,NGA003022
Nigeria,Akwa lbom,Okobo,NGA,NGA003,NGA003023
Nigeria,Akwa lbom,Onna,NGA,NGA003,NGA003024
Nigeria,Akwa lbom,Oruk Anam,NGA,NGA003,NGA003026
Nigeria,Akwa lbom,Ukanafun,NGA,NGA003,NGA003028
Nigeria,Akwa lbom,Uruan,NGA,NGA003,NGA003029
Nigeria,Akwa lbom,Urue-Offong/Oruko,NGA,NGA003,NGA003030
Nigeria,Akwa lbom,Uyo,NGA,NGA003,NGA003031
Nigeria,Anambra,Aguata,NGA,NGA004,NGA004001
Nigeria,Anambra,Anambra East,NGA,NGA004,NGA004002
Nigeria,Anambra,Anambra West,NGA,NGA004,NGA004003
Nigeria,Anambra,Anaocha,NGA,NGA004,NGA004004
Nigeria,Anambra,Awka North,NGA,NGA004,NGA004005
Nigeria,Anambra,Awka South,NGA,NGA004,NGA004006
Nigeria,Anambra,Ayamelum,NGA,NGA004,NGA004007
Nigeria,Anambra,Dunukofia,NGA,NGA004,NGA004008
Nigeria,Anambra,Ekwusigo,NGA,NGA004,NGA004009
Nigeria,Anambra,Idemili North,NGA,NGA004,NGA004010
Nigeria,Anambra,Idemili South,NGA,NGA004,NGA004011
Nigeria,Anambra,Ihiala,NGA,NGA004,NGA004012
Nigeria,Anambra,Njikoka,NGA,NGA004,NGA004013
Nigeria,Anambra,Nnewi North,NGA,NGA004,NGA004014
Nigeria,Anambra,Nnewi South,NGA,NGA004,NGA004015
Nigeria,Anambra,Ogbaru,NGA,NGA004,NGA004016
Nigeria,Anambra,Onitsha North,NGA,NGA004,NGA004017
Nigeria,Anambra,Onitsha South,NGA,NGA004,NGA004018
Nigeria,Anambra,Orumba North,NGA,NGA004,NGA004019
Nigeria,Anambra,Orumba South,NGA,NGA004,NGA004020
Nigeria,Anambra,Oyi,NGA,NGA004,NGA004021
Nigeria,Bauchi,Alkaleri,NGA,NGA005,NGA005001
Nigeria,Bauchi,Bauchi,NGA,NGA005,NGA005002
Nigeria,Bauchi,Bogoro,NGA,NGA005,NGA005003
Nigeria,Bauchi,Damban,NGA,NGA005,NGA005004
Nigeria,Bauchi,Darazo,NGA,NGA005,NGA005005
Nigeria,Bauchi,Dass,NGA,NGA005,NGA005006
Nigeria,Bauchi,Gamawa,NGA,NGA005,NGA005007
Nigeria,Bauchi,Ganjuwa,NGA,NGA005,NGA005008
Nigeria,Bauchi,Giade,NGA,NGA005,NGA005009
Nigeria,Bauchi,Itas/Gadau,NGA,NGA005,NGA005010
Nigeria,Bauchi,Jama'are,NGA,NGA005,NGA005011
Nigeria,Bauchi,Katagum,NGA,NGA005,NGA005012
Nigeria,Bauchi,Kirfi,NGA,NGA005,NGA005013
Nigeria,Bauchi,Misau,NGA,NGA005,NGA005014
Nigeria,Bauchi,Ningi,NGA,NGA005,NGA005015
Nigeria,Bauchi,Shira,NGA,NGA005,NGA005016
Nigeria,Bauchi,Tafawa-Balewa,NGA,NGA005,NGA005017
Nigeria,Bauchi,Toro,NGA,NGA005,NGA005018
Nigeria,Bauchi,Warji,NGA,NGA005,NGA005019
Nigeria,Bauchi,Zaki,NGA,NGA005,NGA005020
Nigeria,Bayelsa,Kolokuma/Opokuma,NGA,NGA006,NGA006003
Nigeria,Bayelsa,Nembe,NGA,NGA006,NGA006004
Nigeria,Bayelsa,Ogbia,NGA,NGA006,NGA006005
Nigeria,Bayelsa,Sagbama,NGA,NGA006,NGA006006
Nigeria,Bayelsa,Yenegoa,NGA,NGA006,NGA006008
Nigeria,Benue,Ado,NGA,NGA007,NGA007001
Nigeria,Benue,Agatu,NGA,NGA007,NGA007002
Nigeria,Benue,Apa,NGA,NGA007,NGA007003
Nigeria,Benue,Buruku,NGA,NGA007,NGA007004
Nigeria,Benue,Gboko,NGA,NGA007,NGA007005
Nigeria,Benue,Guma,NGA,NGA007,NGA007006
Nigeria,Benue,Gwer East,NGA,NGA007,NGA007007
Nigeria,Benue,Gwer West,NGA,NGA007,NGA007008
Nigeria,Benue,Katsina-Ala,NGA,NGA007,NGA007009
Nigeria,Benue,Konshisha,NGA,NGA007,NGA007010
Nigeria,Benue,Logo,NGA,NGA007,NGA007012
Nigeria,Benue,Makurdi,NGA,NGA007,NGA007013
Nigeria,Benue,Obi,NGA,NGA007,NGA007014
Nigeria,Benue,Ogbadibo,NGA,NGA007,NGA007015
Nigeria,Benue,Ohimini,NGA,NGA007,NGA007016
Nigeria,Benue,Oju,NGA,NGA007,NGA007017
Nigeria,Benue,Okpokwu,NGA,NGA007,NGA007018
Nigeria,Benue,Oturkpo,NGA,NGA007,NGA007019
Nigeria,Benue,Tarka,NGA,NGA007,NGA007020
Nigeria,Benue,Ukum,NGA,NGA007,NGA007021
Nigeria,Benue,Ushongo,NGA,NGA007,NGA007022
Nigeria,Benue,Vandeikya,NGA,NGA007,NGA007023
Nigeria,Borno,Askira/Uba,NGA,NGA008,NGA008002
Nigeria,Borno,Bayo,NGA,NGA008,NGA008004
Nigeria,Borno,Biu,NGA,NGA008,NGA008005
Nigeria,Borno,Chibok,NGA,NGA008,NGA008006
Nigeria,Borno,Damboa,NGA,NGA008,NGA008007
Nigeria,Borno,Dikwa,NGA,NGA008,NGA008008
Nigeria,Borno,Gubio,NGA,NGA008,NGA008009
Nigeria,Borno,Guzamala,NGA,NGA008,NGA008010
Nigeria,Borno,Hawul,NGA,NGA008,NGA008012
Nigeria,Borno,Jere,NGA,NGA008,NGA008013
Nigeria,Borno,Kaga,NGA,NGA008,NGA008014
Nigeria,Borno,Konduga,NGA,NGA008,NGA008016
Nigeria,Borno,Kwaya Kusar,NGA,NGA008,NGA008018
Nigeria,Borno,Mafa,NGA,NGA008,NGA008019
Nigeria,Borno,Magumeri,NGA,NGA008,NGA008020
Nigeria,Borno,Maiduguri,NGA,NGA008,NGA008021
Nigeria,Borno,Marte,NGA,NGA008,NGA008022
Nigeria,Borno,Nganzai,NGA,NGA008,NGA008026
Nigeria,Borno,Shani,NGA,NGA008,NGA008027
Nigeria,Cross River,Abi,NGA,NGA009,NGA009001
Nigeria,Cross River,Bekwara,NGA,NGA009,NGA009005
Nigeria,Cross River,Biase,NGA,NGA009,NGA009006
Nigeria,Cross River,Calabar-Municipal,NGA,NGA009,NGA009009
Nigeria,Cross River,Ikom,NGA,NGA009,NGA009011
Nigeria,Cross River,Obubra,NGA,NGA009,NGA009013
Nigeria,Cross River,Obudu,NGA,NGA009,NGA009014
Nigeria,Cross River,Ogoja,NGA,NGA009,NGA009016
Nigeria,Cross River,Yakurr,NGA,NGA009,NGA009017
Nigeria,Cross River,Yala,NGA,NGA009,NGA009018
Nigeria,Delta,Aniocha North,NGA,NGA010,NGA010001
Nigeria,Delta,Aniocha South,NGA,NGA010,NGA010002
Nigeria,Delta,Bomadi,NGA,NGA010,NGA010003
Nigeria,Delta,Ethiope East,NGA,NGA010,NGA010005
Nigeria,Delta,Ethiope West,NGA,NGA010,NGA010006
Nigeria,Delta,Ika North East,NGA,NGA010,NGA010007
Nigeria,Delta,Ika South,NGA,NGA010,NGA010008
Nigeria,Delta,Isoko North,NGA,NGA010,NGA010009
Nigeria,Delta,Isoko South,NGA,NGA010,NGA010010
Nigeria,Delta,Ndokwa East,NGA,NGA010,NGA010011
Nigeria,Delta,Ndokwa West,NGA,NGA010,NGA010012
Nigeria,Delta,Okpe,NGA,NGA010,NGA010013
Nigeria,Delta,Oshimili North,NGA,NGA010,NGA010014
Nigeria,Delta,Oshimili South,NGA,NGA010,NGA010015
Nigeria,Delta,Patani,NGA,NGA010,NGA010016
Nigeria,Delta,Sapele,NGA,NGA010,NGA010017
Nigeria,Delta,Udu,NGA,NGA010,NGA010018
Nigeria,Delta,Ughelli North,NGA,NGA010,NGA010019
Nigeria,Delta,Ughelli South,NGA,NGA010,NGA010020
Nigeria,Delta,Ukwuani,NGA,NGA010,NGA010021
Nigeria,Delta,Uvwie,NGA,NGA010,NGA010022
Nigeria,Delta,Warri South,NGA,NGA010,NGA010024
Nigeria,Ebonyi,Abakaliki,NGA,NGA011,NGA011001
Nigeria,Ebonyi,Afikpo North,NGA,NGA011,NGA011002
Nigeria,Ebonyi,Afikpo South,NGA,NGA011,NGA011003
Nigeria,Ebonyi,Ebonyi,NGA,NGA011,NGA011004
Nigeria,Ebonyi,Ezza North,NGA,NGA011,NGA011005
Nigeria,Ebonyi,Ezza South,NGA,NGA011,NGA011006
Nigeria,Ebonyi,Ikwo,NGA,NGA011,NGA011007
Nigeria,Ebonyi,Ishielu,NGA,NGA011,NGA011008
Nigeria,Ebonyi,Ivo,NGA,NGA011,NGA011009
Nigeria,Ebonyi,Izzi,NGA,NGA011,NGA011010
Nigeria,Ebonyi,Ohaozara,NGA,NGA011,NGA011011
Nigeria,Ebonyi,Ohaukwu,NGA,NGA011,NGA011012
Nigeria,Ebonyi,Onicha,NGA,NGA011,NGA011013
Nigeria,Edo,Akoko-Edo,NGA,NGA012,NGA012001
Nigeria,Edo,Egor,NGA,NGA012,NGA012002
Nigeria,Edo,Esan North East,NGA,NGA012,NGA012004
Nigeria,Edo,Esan Central,NGA,NGA012,NGA012003
Nigeria,Edo,Esan South East,NGA,NGA012,NGA012005
Nigeria,Edo,Esan West,NGA,NGA012,NGA012006
Nigeria,Edo,Etsako Central,NGA,NGA012,NGA012007
Nigeria,Edo,Etsako East,NGA,NGA012,NGA012008
Nigeria,Edo,Etsako West,NGA,NGA012,NGA012009
Nigeria,Edo,Igueben,NGA,NGA012,NGA012010
Nigeria,Edo,Ikpoba-Okha,NGA,NGA012,NGA012011
Nigeria,Edo,Oredo,NGA,NGA012,NGA012012
Nigeria,Edo,Orhionmwon,NGA,NGA012,NGA012013
Nigeria,Edo,Ovia North East,NGA,NGA012,NGA012014
Nigeria,Edo,Ovia South West,NGA,NGA012,NGA012015
Nigeria,Edo,Owan East,NGA,NGA012,NGA012016
Nigeria,Edo,Owan West,NGA,NGA012,NGA012017
Nigeria,Edo,Uhunmwonde,NGA,NGA012,NGA012018
Nigeria,Ekiti,Ado Ekiti,NGA,NGA013,NGA013001
Nigeria,Ekiti,Efon-Alayee,NGA,NGA013,NGA013003
Nigeria,Ekiti,Ekiti East,NGA,NGA013,NGA013004
Nigeria,Ekiti,Ekiti South West,NGA,NGA013,NGA013005
Nigeria,Ekiti,Ekiti West,NGA,NGA013,NGA013006
Nigeria,Ekiti,Emure,NGA,NGA013,NGA013007
Nigeria,Ekiti,Gboyin,NGA,NGA013,NGA013002
Nigeria,Ekiti,Idosi-Osi,NGA,NGA013,NGA013008
Nigeria,Ekiti,Ijero,NGA,NGA013,NGA013009
Nigeria,Ekiti,Ikere,NGA,NGA013,NGA013010
Nigeria,Ekiti,Ikole,NGA,NGA013,NGA013011
Nigeria,Ekiti,Ilemeji,NGA,NGA013,NGA013012
Nigeria,Ekiti,Irepodun/Ifelodun,NGA,NGA013,NGA013013
Nigeria,Ekiti,Ise/Orun,NGA,NGA013,NGA013014
Nigeria,Ekiti,Moba,NGA,NGA013,NGA013015
Nigeria,Ekiti,Oye,NGA,NGA013,NGA013016
Nigeria,Enugu,Aninri,NGA,NGA014,NGA014001
Nigeria,Enugu,Awgu,NGA,NGA014,NGA014002
Nigeria,Enugu,Enugu East,NGA,NGA014,NGA014003
Nigeria,Enugu,Enugu North,NGA,NGA014,NGA014004
Nigeria,Enugu,Enugu South,NGA,NGA014,NGA014005
Nigeria,Enugu,Ezeagu,NGA,NGA014,NGA014006
Nigeria,Enugu,Igbo-Etiti,NGA,NGA014,NGA014007
Nigeria,Enugu,Igbo-Eze North,NGA,NGA014,NGA014008
Nigeria,Enugu,Igbo-Eze South,NGA,NGA014,NGA014009
Nigeria,Enugu,Isi-Uzo,NGA,NGA014,NGA014010
Nigeria,Enugu,Nkanu East,NGA,NGA014,NGA014011
Nigeria,Enugu,Nkanu West,NGA,NGA014,NGA014012
Nigeria,Enugu,Nsukka,NGA,NGA014,NGA014013
Nigeria,Enugu,Oji-River,NGA,NGA014,NGA014014
Nigeria,Enugu,Udenu,NGA,NGA014,NGA014015
Nigeria,Enugu,Udi,NGA,NGA014,NGA014016
Nigeria,Enugu,Uzo-Uwani,NGA,NGA014,NGA014017
Nigeria,Federal Capital Territory,Abaji,NGA,NGA015,NGA015001
Nigeria,Federal Capital Territory,Bwari,NGA,NGA015,NGA015003
Nigeria,Federal Capital Territory,Gwagwalada,NGA,NGA015,NGA015004
Nigeria,Osun,Ilesha East,NGA,NGA030,NGA030018
Nigeria,Osun,Ilesha West,NGA,NGA030,NGA030019
Nigeria,Osun,Irepodun,NGA,NGA030,NGA030020
Nigeria,Osun,Irewole,NGA,NGA030,NGA030021
Nigeria,Osun,Isokan,NGA,NGA030,NGA030022
Nigeria,Osun,Iwo,NGA,NGA030,NGA030023
Nigeria,Osun,Obokun,NGA,NGA030,NGA030024
Nigeria,Osun,Odo-Otin,NGA,NGA030,NGA030025
Nigeria,Osun,Ola-oluwa,NGA,NGA030,NGA030026
Nigeria,Osun,Olorunda,NGA,NGA030,NGA030027
Nigeria,Osun,Oriade,NGA,NGA030,NGA030028
Nigeria,Osun,Orolu,NGA,NGA030,NGA030029
Nigeria,Osun,Osogbo,NGA,NGA030,NGA030030
Nigeria,Oyo,Afijio,NGA,NGA031,NGA031001
Nigeria,Oyo,Akinyele,NGA,NGA031,NGA031002
Nigeria,Oyo,Atiba,NGA,NGA031,NGA031003
Nigeria,Oyo,Egbeda,NGA,NGA031,NGA031005
Nigeria,Oyo,Ibadan North,NGA,NGA031,NGA031006
Nigeria,Oyo,Ibadan North East,NGA,NGA031,NGA031007
Nigeria,Oyo,Ibadan North West,NGA,NGA031,NGA031008
Nigeria,Oyo,Ibadan South East,NGA,NGA031,NGA031009
Nigeria,Oyo,Ibadan South West,NGA,NGA031,NGA031010
Nigeria,Federal Capital Territory,Kuje,NGA,NGA015,NGA015005
Nigeria,Federal Capital Territory,Kwali,NGA,NGA015,NGA015006
Nigeria,Federal Capital Territory,Abuja Municipal,NGA,NGA015,NGA015002
Nigeria,Gombe,Akko,NGA,NGA016,NGA016001
Nigeria,Gombe,Balanga,NGA,NGA016,NGA016002
Nigeria,Gombe,Billiri,NGA,NGA016,NGA016003
Nigeria,Gombe,Dukku,NGA,NGA016,NGA016004
Nigeria,Gombe,Funakaye,NGA,NGA016,NGA016005
Nigeria,Gombe,Gombe,NGA,NGA016,NGA016006
Nigeria,Gombe,Kaltungo,NGA,NGA016,NGA016007
Nigeria,Gombe,Kwami,NGA,NGA016,NGA016008
Nigeria,Gombe,Nafada,NGA,NGA016,NGA016009
Nigeria,Gombe,Shomgom,NGA,NGA016,NGA016010
Nigeria,Gombe,Yamaltu/Deba,NGA,NGA016,NGA016011
Nigeria,Imo,Aboh-Mbaise,NGA,NGA017,NGA017001
Nigeria,Imo,Ahiazu-Mbaise,NGA,NGA017,NGA017002
Nigeria,Imo,Ehime-Mbano,NGA,NGA017,NGA017003
Nigeria,Imo,Ezinihitte,NGA,NGA017,NGA017004
Nigeria,Imo,Ideato North,NGA,NGA017,NGA017005
Nigeria,Imo,Ideato South,NGA,NGA017,NGA017006
Nigeria,Imo,Ihitte/Uboma,NGA,NGA017,NGA017007
Nigeria,Imo,Ikeduru,NGA,NGA017,NGA017008
Nigeria,Imo,Isiala Mbano,NGA,NGA017,NGA017009
Nigeria,Imo,Isu,NGA,NGA017,NGA017010
Nigeria,Imo,Mbaitoli,NGA,NGA017,NGA017011
Nigeria,Imo,Ngor-Okpala,NGA,NGA017,NGA017012
Nigeria,Imo,Njaba,NGA,NGA017,NGA017013
Nigeria,Imo,Nkwerre,NGA,NGA017,NGA017014
Nigeria,Imo,Nwangele,NGA,NGA017,NGA017015
Nigeria,Imo,Obowo,NGA,NGA017,NGA017016
Nigeria,Imo,Oguta,NGA,NGA017,NGA017017
Nigeria,Imo,Ohaji/Egbema,NGA,NGA017,NGA017018
Nigeria,Imo,Okigwe,NGA,NGA017,NGA017019
Nigeria,Imo,Orlu,NGA,NGA017,NGA017020
Nigeria,Imo,Orsu,NGA,NGA017,NGA017021
Nigeria,Imo,Oru East,NGA,NGA017,NGA017022
Nigeria,Imo,Oru West,NGA,NGA017,NGA017023
Nigeria,Imo,Owerri-Municipal,NGA,NGA017,NGA017026
Nigeria,Imo,Owerri North,NGA,NGA017,NGA017024
Nigeria,Imo,Owerri West,NGA,NGA017,NGA017025
Nigeria,Imo,Unuimo,NGA,NGA017,NGA017027
Nigeria,Jigawa,Auyo,NGA,NGA018,NGA018001
Nigeria,Jigawa,Babura,NGA,NGA018,NGA018002
Nigeria,Jigawa,Biriniwa,NGA,NGA018,NGA018003
Nigeria,Jigawa,Birni Kudu,NGA,NGA018,NGA018004
Nigeria,Jigawa,Buji,NGA,NGA018,NGA018005
Nigeria,Jigawa,Dutse,NGA,NGA018,NGA018006
Nigeria,Jigawa,Gagarawa,NGA,NGA018,NGA018007
Nigeria,Jigawa,Garki,NGA,NGA018,NGA018008
Nigeria,Jigawa,Gumel,NGA,NGA018,NGA018009
Nigeria,Jigawa,Guri,NGA,NGA018,NGA018010
Nigeria,Jigawa,Gwaram,NGA,NGA018,NGA018011
Nigeria,Jigawa,Gwiwa,NGA,NGA018,NGA018012
Nigeria,Jigawa,Hadejia,NGA,NGA018,NGA018013
Nigeria,Jigawa,Jahun,NGA,NGA018,NGA018014
Nigeria,Jigawa,Kafin Hausa,NGA,NGA018,NGA018015
Nigeria,Jigawa,Kaugama,NGA,NGA018,NGA018016
Nigeria,Jigawa,Kazaure,NGA,NGA018,NGA018017
Nigeria,Jigawa,Kiri Kasamma,NGA,NGA018,NGA018018
Nigeria,Jigawa,Malam Madori,NGA,NGA018,NGA018021
Nigeria,Jigawa,Miga,NGA,NGA018,NGA018022
Nigeria,Jigawa,Ringim,NGA,NGA018,NGA018023
Nigeria,Jigawa,Roni,NGA,NGA018,NGA018024
Nigeria,Jigawa,Taura,NGA,NGA018,NGA018026
Nigeria,Jigawa,Yankwashi,NGA,NGA018,NGA018027
Nigeria,Jigawa,kiyawa,NGA,NGA018,NGA018019
Nigeria,Kaduna,Birnin-Gwari,NGA,NGA019,NGA019001
Nigeria,Kaduna,Chikun,NGA,NGA019,NGA019002
Nigeria,Kaduna,Giwa,NGA,NGA019,NGA019003
Nigeria,Kaduna,Kajuru,NGA,NGA019,NGA019012
Nigeria,Kaduna,Igabi,NGA,NGA019,NGA019004
Nigeria,Kaduna,Ikara,NGA,NGA019,NGA019005
Nigeria,Kaduna,Jaba,NGA,NGA019,NGA019006
Nigeria,Kaduna,Jema'a,NGA,NGA019,NGA019007
Nigeria,Kaduna,Kachia,NGA,NGA019,NGA019008
Nigeria,Kaduna,Kaduna North,NGA,NGA019,NGA019009
Nigeria,Kaduna,Kagarko,NGA,NGA019,NGA019011
Nigeria,Kaduna,Kaura,NGA,NGA019,NGA019013
Nigeria,Kaduna,Kauru,NGA,NGA019,NGA019014
Nigeria,Kaduna,Kubau,NGA,NGA019,NGA019015
Nigeria,Kaduna,Kudan,NGA,NGA019,NGA019016
Nigeria,Kaduna,Lere,NGA,NGA019,NGA019017
Nigeria,Kaduna,Markafi,NGA,NGA019,NGA019018
Nigeria,Kaduna,Sabon-Gari,NGA,NGA019,NGA019019
Nigeria,Kaduna,Sanga,NGA,NGA019,NGA019020
Nigeria,Kaduna,Soba,NGA,NGA019,NGA019021
Nigeria,Kaduna,Zango-Kataf,NGA,NGA019,NGA019022
Nigeria,Kaduna,Zaria,NGA,NGA019,NGA019023
Nigeria,Kaduna,Kaduna South,NGA,NGA019,NGA019010
Nigeria,Kano,Ajingi,NGA,NGA020,NGA020001
Nigeria,Kano,Albasu,NGA,NGA020,NGA020002
Nigeria,Kano,Bagwai,NGA,NGA020,NGA020003
Nigeria,Kano,Bebeji,NGA,NGA020,NGA020004
Nigeria,Kano,Bichi,NGA,NGA020,NGA020005
Nigeria,Kano,Bunkure,NGA,NGA020,NGA020006
Nigeria,Kano,Dala,NGA,NGA020,NGA020007
Nigeria,Kano,Dambatta,NGA,NGA020,NGA020008
Nigeria,Kano,Dawakin Kudu,NGA,NGA020,NGA020009
Nigeria,Kano,Dawakin Tofa,NGA,NGA020,NGA020010
Nigeria,Kano,Doguwa,NGA,NGA020,NGA020011
Nigeria,Kano,Fagge,NGA,NGA020,NGA020012
Nigeria,Kano,Gabasawa,NGA,NGA020,NGA020013
Nigeria,Kano,Garko,NGA,NGA020,NGA020014
Nigeria,Kano,Garum Mallam,NGA,NGA020,NGA020015
Nigeria,Kano,Gaya,NGA,NGA020,NGA020016
Nigeria,Kano,Gezawa,NGA,NGA020,NGA020017
Nigeria,Kano,Gwale,NGA,NGA020,NGA020018
Nigeria,Kano,Gwarzo,NGA,NGA020,NGA020019
Nigeria,Kano,Kabo,NGA,NGA020,NGA020020
Nigeria,Kano,Kano Municipal,NGA,NGA020,NGA020021
Nigeria,Kano,Karaye,NGA,NGA020,NGA020022
Nigeria,Kano,Kibiya,NGA,NGA020,NGA020023
Nigeria,Kano,Kiru,NGA,NGA020,NGA020024
Nigeria,Kano,Kumbotso,NGA,NGA020,NGA020025
Nigeria,Kano,Kunchi,NGA,NGA020,NGA020026
Nigeria,Kano,Kura,NGA,NGA020,NGA020027
Nigeria,Kano,Madobi,NGA,NGA020,NGA020028
Nigeria,Kano,Makoda,NGA,NGA020,NGA020029
Nigeria,Kano,Minjibir,NGA,NGA020,NGA020030
Nigeria,Kano,Nasarawa,NGA,NGA020,NGA020031
Nigeria,Kano,Rano,NGA,NGA020,NGA020032
Nigeria,Kano,Rimin Gado,NGA,NGA020,NGA020033
Nigeria,Kano,Rogo,NGA,NGA020,NGA020034
Nigeria,Kano,Shanono,NGA,NGA020,NGA020035
Nigeria,Kano,Sumaila,NGA,NGA020,NGA020036
Nigeria,Kano,Takali,NGA,NGA020,NGA020037
Nigeria,Kano,Tarauni,NGA,NGA020,NGA020038
Nigeria,Kano,Tofa,NGA,NGA020,NGA020039
Nigeria,Kano,Tsanyawa,NGA,NGA020,NGA020040
Nigeria,Kano,Tudun Wada,NGA,NGA020,NGA020041
Nigeria,Kano,Ungogo,NGA,NGA020,NGA020042
Nigeria,Kano,Warawa,NGA,NGA020,NGA020043
Nigeria,Kano,Wudil,NGA,NGA020,NGA020044
Nigeria,Katsina,Bakori,NGA,NGA021,NGA021001
Nigeria,Katsina,Batagarawa,NGA,NGA021,NGA021002
Nigeria,Katsina,Batsari,NGA,NGA021,NGA021003
Nigeria,Katsina,Bindawa,NGA,NGA021,NGA021005
Nigeria,Katsina,Charanchi,NGA,NGA021,NGA021006
Nigeria,Katsina,Dan Musa,NGA,NGA021,NGA021007
Nigeria,Katsina,Dandume,NGA,NGA021,NGA021008
Nigeria,Katsina,Danja,NGA,NGA021,NGA021009
Nigeria,Katsina,Daura,NGA,NGA021,NGA021010
Nigeria,Katsina,Dutsi,NGA,NGA021,NGA021011
Nigeria,Katsina,Dutsin-Ma,NGA,NGA021,NGA021012
Nigeria,Katsina,Faskari,NGA,NGA021,NGA021013
Nigeria,Katsina,Funtua,NGA,NGA021,NGA021014
Nigeria,Katsina,Ingawa,NGA,NGA021,NGA021015
Nigeria,Katsina,Kafur,NGA,NGA021,NGA021017
Nigeria,Katsina,Kankara,NGA,NGA021,NGA021019
Nigeria,Katsina,Kankia,NGA,NGA021,NGA021020
Nigeria,Katsina,Katsina,NGA,NGA021,NGA021021
Nigeria,Katsina,Kurfi,NGA,NGA021,NGA021022
Nigeria,Katsina,Kusada,NGA,NGA021,NGA021023
Nigeria,Katsina,Malumfashi,NGA,NGA021,NGA021025
Nigeria,Katsina,Mani,NGA,NGA021,NGA021026
Nigeria,Katsina,Matazuu,NGA,NGA021,NGA021028
Nigeria,Katsina,Musawa,NGA,NGA021,NGA021029
Nigeria,Katsina,Rimi,NGA,NGA021,NGA021030
Nigeria,Katsina,Sabuwa,NGA,NGA021,NGA021031
Nigeria,Katsina,Safana,NGA,NGA021,NGA021032
Nigeria,Katsina,Sandamu,NGA,NGA021,NGA021033
Nigeria,Kebbi,Aleiro,NGA,NGA022,NGA022001
Nigeria,Kebbi,Argungu,NGA,NGA022,NGA022003
Nigeria,Kebbi,Augie,NGA,NGA022,NGA022004
Nigeria,Kebbi,Birnin Kebbi,NGA,NGA022,NGA022006
Nigeria,Kebbi,Bunza,NGA,NGA022,NGA022007
Nigeria,Kebbi,Fakai,NGA,NGA022,NGA022009
Nigeria,Kebbi,Gwandu,NGA,NGA022,NGA022010
Nigeria,Kebbi,Jega,NGA,NGA022,NGA022011
Nigeria,Kebbi,Kalgo,NGA,NGA022,NGA022012
Nigeria,Kebbi,Koko/Besse,NGA,NGA022,NGA022013
Nigeria,Kebbi,Maiyama,NGA,NGA022,NGA022014
Nigeria,Kebbi,Ngaski,NGA,NGA022,NGA022015
Nigeria,Kebbi,Sakaba,NGA,NGA022,NGA022016
Nigeria,Kebbi,Shanga,NGA,NGA022,NGA022017
Nigeria,Kebbi,Suru,NGA,NGA022,NGA022018
Nigeria,Kebbi,Wasagu/Danko,NGA,NGA022,NGA022019
Nigeria,Kebbi,Yauri,NGA,NGA022,NGA022020
Nigeria,Kebbi,Zuru,NGA,NGA022,NGA022021
Nigeria,Kogi,Adavi,NGA,NGA023,NGA023001
Nigeria,Kogi,Ajaokuta,NGA,NGA023,NGA023002
Nigeria,Kogi,Ankpa,NGA,NGA023,NGA023003
Nigeria,Kogi,Bassa,NGA,NGA023,NGA023004
Nigeria,Kogi,Dekina,NGA,NGA023,NGA023005
Nigeria,Kogi,Ibaji,NGA,NGA023,NGA023006
Nigeria,Kogi,Idah,NGA,NGA023,NGA023007
Nigeria,Kogi,Igalamela-Odolu,NGA,NGA023,NGA023008
Nigeria,Kogi,Ijumu,NGA,NGA023,NGA023009
Nigeria,Kogi,Kabba/Bunu,NGA,NGA023,NGA023010
Nigeria,Kogi,Kogi,NGA,NGA023,NGA023011
Nigeria,Kogi,Lokoja,NGA,NGA023,NGA023012
Nigeria,Kogi,Mopa-Muro,NGA,NGA023,NGA023013
Nigeria,Kogi,Ofu,NGA,NGA023,NGA023014
Nigeria,Kogi,Ogori/Mangongo,NGA,NGA023,NGA023015
Nigeria,Kogi,Okehi,NGA,NGA023,NGA023016
Nigeria,Kogi,Okene,NGA,NGA023,NGA023017
Nigeria,Kogi,Olamabolo,NGA,NGA023,NGA023018
Nigeria,Kogi,Omala,NGA,NGA023,NGA023019
Nigeria,Kogi,Yagba East,NGA,NGA023,NGA023020
Nigeria,Kogi,Yagba West,NGA,NGA023,NGA023021
Nigeria,Kwara,Asa,NGA,NGA024,NGA024001
Nigeria,Kwara,Edu,NGA,NGA024,NGA024003
Nigeria,Kwara,Ekiti,NGA,NGA024,NGA024004
Nigeria,Kwara,Ifelodun,NGA,NGA024,NGA024005
Nigeria,Kwara,Ilorin East,NGA,NGA024,NGA024006
Nigeria,Kwara,Ilorin South,NGA,NGA024,NGA024007
Nigeria,Kwara,Ilorin West,NGA,NGA024,NGA024008
Nigeria,Kwara,Irepodun,NGA,NGA024,NGA024009
Nigeria,Kwara,Isin,NGA,NGA024,NGA024010
Nigeria,Kwara,Kaiama,NGA,NGA024,NGA024011
Nigeria,Kwara,Moro,NGA,NGA024,NGA024012
Nigeria,Kwara,Offa,NGA,NGA024,NGA024013
Nigeria,Kwara,Oke-Ero,NGA,NGA024,NGA024014
Nigeria,Kwara,Oyun,NGA,NGA024,NGA024015
Nigeria,Kwara,Pategi,NGA,NGA024,NGA024016
Nigeria,Lagos,Agege,NGA,NGA025,NGA025001
Nigeria,Lagos,Ajeromi-Ifelodun,NGA,NGA025,NGA025002
Nigeria,Lagos,Alimosho,NGA,NGA025,NGA025003
Nigeria,Lagos,Apapa,NGA,NGA025,NGA025005
Nigeria,Lagos,Ifako-Ijaye,NGA,NGA025,NGA025010
Nigeria,Lagos,Ikeja,NGA,NGA025,NGA025011
Nigeria,Lagos,Mushin,NGA,NGA025,NGA025016
Nigeria,Lagos,Oshodi-Isolo,NGA,NGA025,NGA025018
Nigeria,Lagos,Surulere,NGA,NGA025,NGA025020
Nigeria,Nasarawa,Akwanga,NGA,NGA026,NGA026001
Nigeria,Nasarawa,Awe,NGA,NGA026,NGA026002
Nigeria,Nasarawa,Doma,NGA,NGA026,NGA026003
Nigeria,Nasarawa,Karu,NGA,NGA026,NGA026004
Nigeria,Nasarawa,Keana,NGA,NGA026,NGA026005
Nigeria,Nasarawa,Keffi,NGA,NGA026,NGA026006
Nigeria,Nasarawa,Kokona,NGA,NGA026,NGA026007
Nigeria,Nasarawa,Lafia,NGA,NGA026,NGA026008
Nigeria,Nasarawa,Nasarawa,NGA,NGA026,NGA026009
Nigeria,Nasarawa,Nasarawa-Eggon,NGA,NGA026,NGA026010
Nigeria,Nasarawa,Obi,NGA,NGA026,NGA026011
Nigeria,Nasarawa,Toto,NGA,NGA026,NGA026012
Nigeria,Nasarawa,Wamba,NGA,NGA026,NGA026013
Nigeria,Niger,Agaie,NGA,NGA027,NGA027001
Nigeria,Niger,Agwara,NGA,NGA027,NGA027002
Nigeria,Niger,Bida,NGA,NGA027,NGA027003
Nigeria,Niger,Bosso,NGA,NGA027,NGA027005
Nigeria,Niger,Chanchaga,NGA,NGA027,NGA027006
Nigeria,Niger,Edati,NGA,NGA027,NGA027007
Nigeria,Niger,Gbako,NGA,NGA027,NGA027008
Nigeria,Niger,Gurara,NGA,NGA027,NGA027009
Nigeria,Niger,Katcha,NGA,NGA027,NGA027010
Nigeria,Niger,Kontagora,NGA,NGA027,NGA027011
Nigeria,Niger,Lapai,NGA,NGA027,NGA027012
Nigeria,Niger,Lavun,NGA,NGA027,NGA027013
Nigeria,Niger,Magama,NGA,NGA027,NGA027014
Nigeria,Niger,Mariga,NGA,NGA027,NGA027015
Nigeria,Niger,Mashegu,NGA,NGA027,NGA027016
Nigeria,Niger,Mokwa,NGA,NGA027,NGA027017
Nigeria,Niger,Muya,NGA,NGA027,NGA027018
Nigeria,Niger,Pailoro,NGA,NGA027,NGA027019
Nigeria,Niger,Rafi,NGA,NGA027,NGA027020
Nigeria,Niger,Rijau,NGA,NGA027,NGA027021
Nigeria,Niger,Shiroro,NGA,NGA027,NGA027022
Nigeria,Niger,Suleja,NGA,NGA027,NGA027023
Nigeria,Niger,Tafa,NGA,NGA027,NGA027024
Nigeria,Niger,Wushishi,NGA,NGA027,NGA027025
Nigeria,Ogun,Abeokuta North,NGA,NGA028,NGA028001
Nigeria,Ogun,Abeokuta South,NGA,NGA028,NGA028002
Nigeria,Ogun,Ado-Odo/Ota,NGA,NGA028,NGA028003
Nigeria,Ogun,Egbado South,NGA,NGA028,NGA028005
Nigeria,Ogun,Ewekoro,NGA,NGA028,NGA028006
Nigeria,Ogun,Ifo,NGA,NGA028,NGA028007
Nigeria,Ogun,Ijebu East,NGA,NGA028,NGA028008
Nigeria,Ogun,Ijebu North,NGA,NGA028,NGA028009
Nigeria,Ogun,Ijebu North East,NGA,NGA028,NGA028010
Nigeria,Ogun,Ijebu ode,NGA,NGA028,NGA028011
Nigeria,Ogun,Ikenne,NGA,NGA028,NGA028012
Nigeria,Ogun,Obafemi-Owode,NGA,NGA028,NGA028015
Nigeria,Ogun,Odeda,NGA,NGA028,NGA028016
Nigeria,Ogun,Odogbolu,NGA,NGA028,NGA028017
Nigeria,Ogun,Remo North,NGA,NGA028,NGA028019
Nigeria,Ogun,Shagamu,NGA,NGA028,NGA028020
Nigeria,Ondo,Akoko North East,NGA,NGA029,NGA029001
Nigeria,Ondo,Akoko North West,NGA,NGA029,NGA029002
Nigeria,Ondo,Akoko South East,NGA,NGA029,NGA029003
Nigeria,Ondo,Akoko South West,NGA,NGA029,NGA029004
Nigeria,Ondo,Akure North,NGA,NGA029,NGA029005
Nigeria,Ondo,Akure South,NGA,NGA029,NGA029006
Nigeria,Ondo,Ese-Odo,NGA,NGA029,NGA029007
Nigeria,Ondo,Idanre,NGA,NGA029,NGA029008
Nigeria,Ondo,Ifedore,NGA,NGA029,NGA029009
Nigeria,Ondo,Ile-Oluji-Okeigbo,NGA,NGA029,NGA029011
Nigeria,Ondo,Irele,NGA,NGA029,NGA029012
Nigeria,Ondo,Odigbo,NGA,NGA029,NGA029013
Nigeria,Ondo,Okitipupa,NGA,NGA029,NGA029014
Nigeria,Ondo,Ondo East,NGA,NGA029,NGA029015
Nigeria,Ondo,Ondo West,NGA,NGA029,NGA029016
Nigeria,Ondo,Ose,NGA,NGA029,NGA029017
Nigeria,Ondo,Owo,NGA,NGA029,NGA029018
Nigeria,Osun,Aiyedade,NGA,NGA030,NGA030001
Nigeria,Osun,Aiyedire,NGA,NGA030,NGA030002
Nigeria,Osun,Atakumosa East,NGA,NGA030,NGA030003
Nigeria,Osun,Atakumosa West,NGA,NGA030,NGA030004
Nigeria,Osun,Boluwaduro,NGA,NGA030,NGA030005
Nigeria,Osun,Boripe,NGA,NGA030,NGA030006
Nigeria,Osun,Ede North,NGA,NGA030,NGA030007
Nigeria,Osun,Ede South,NGA,NGA030,NGA030008
Nigeria,Osun,Egbedore,NGA,NGA030,NGA030009
Nigeria,Osun,Ejigbo,NGA,NGA030,NGA030010
Nigeria,Osun,Ife Central,NGA,NGA030,NGA030011
Nigeria,Osun,Ife East,NGA,NGA030,NGA030012
Nigeria,Osun,Ife North,NGA,NGA030,NGA030013
Nigeria,Osun,Ife South,NGA,NGA030,NGA030014
Nigeria,Osun,Ifedayo,NGA,NGA030,NGA030015
Nigeria,Osun,Ifelodun,NGA,NGA030,NGA030016
Nigeria,Osun,Ila,NGA,NGA030,NGA030017
Nigeria,Oyo,Ibarapa Central,NGA,NGA031,NGA031011
Nigeria,Oyo,Ibarapa East,NGA,NGA031,NGA031012
Nigeria,Oyo,Ibarapa North,NGA,NGA031,NGA031013
Nigeria,Oyo,Ido,NGA,NGA031,NGA031014
Nigeria,Oyo,Irepo,NGA,NGA031,NGA031015
Nigeria,Oyo,Iseyin,NGA,NGA031,NGA031016
Nigeria,Oyo,Itesiwaju,NGA,NGA031,NGA031017
Nigeria,Oyo,Kajola,NGA,NGA031,NGA031019
Nigeria,Oyo,Lagelu,NGA,NGA031,NGA031020
Nigeria,Oyo,Ogbomosho North,NGA,NGA031,NGA031021
Nigeria,Oyo,Ogbomosho South,NGA,NGA031,NGA031022
Nigeria,Oyo,Ogo Oluwa,NGA,NGA031,NGA031023
Nigeria,Oyo,Olorunsogo,NGA,NGA031,NGA031024
Nigeria,Oyo,Oluyole,NGA,NGA031,NGA031025
Nigeria,Oyo,Ona-Ara,NGA,NGA031,NGA031026
Nigeria,Oyo,Orelope,NGA,NGA031,NGA031027
Nigeria,Oyo,Ori Ire,NGA,NGA031,NGA031028
Nigeria,Oyo,Oyo East,NGA,NGA031,NGA031029
Nigeria,Oyo,Oyo West,NGA,NGA031,NGA031030
Nigeria,Oyo,Saki East,NGA,NGA031,NGA031031
Nigeria,Oyo,Surulere,NGA,NGA031,NGA031033
Nigeria,Plateau,Barikin Ladi,NGA,NGA032,NGA032001
Nigeria,Plateau,Bassa,NGA,NGA032,NGA032002
Nigeria,Plateau,Bokkos,NGA,NGA032,NGA032003
Nigeria,Plateau,Jos East,NGA,NGA032,NGA032004
Nigeria,Plateau,Jos North,NGA,NGA032,NGA032005
Nigeria,Plateau,Jos South,NGA,NGA032,NGA032006
Nigeria,Plateau,Kanam,NGA,NGA032,NGA032007
Nigeria,Plateau,Kanke,NGA,NGA032,NGA032008
Nigeria,Plateau,Langtang North,NGA,NGA032,NGA032009
Nigeria,Plateau,Langtang South,NGA,NGA032,NGA032010
Nigeria,Plateau,Mangu,NGA,NGA032,NGA032011
Nigeria,Plateau,Mikang,NGA,NGA032,NGA032012
Nigeria,Plateau,Pankshin,NGA,NGA032,NGA032013
Nigeria,Plateau,Qua'an Pan,NGA,NGA032,NGA032014
Nigeria,Plateau,Riyom,NGA,NGA032,NGA032015
Nigeria,Plateau,Shendam,NGA,NGA032,NGA032016
Nigeria,Plateau,Wase,NGA,NGA032,NGA032017
Nigeria,Rivers,Abua/Odual,NGA,NGA033,NGA033001
Nigeria,Rivers,Ahoada East,NGA,NGA033,NGA033002
Nigeria,Rivers,Ahoada West,NGA,NGA033,NGA033003
Nigeria,Rivers,Asari-Toru,NGA,NGA033,NGA033006
Nigeria,Rivers,Eleme,NGA,NGA033,NGA033009
Nigeria,Rivers,Emohua,NGA,NGA033,NGA033010
Nigeria,Rivers,Etche,NGA,NGA033,NGA033011
Nigeria,Rivers,Gokana,NGA,NGA033,NGA033012
Nigeria,Rivers,Ikwerre,NGA,NGA033,NGA033013
Nigeria,Rivers,Khana,NGA,NGA033,NGA033014
Nigeria,Rivers,Obia/Akpor,NGA,NGA033,NGA033015
Nigeria,Rivers,Ogba/Egbema/Ndoni,NGA,NGA033,NGA033016
Nigeria,Rivers,Ogu/Bolo,NGA,NGA033,NGA033017
Nigeria,Rivers,Okrika,NGA,NGA033,NGA033018
Nigeria,Rivers,Omumma,NGA,NGA033,NGA033019
Nigeria,Rivers,Oyigbo,NGA,NGA033,NGA033021
Nigeria,Rivers,Port-Harcourt,NGA,NGA033,NGA033022
Nigeria,Rivers,Tai,NGA,NGA033,NGA033023
Nigeria,Sokoto,Binji,NGA,NGA034,NGA034001
Nigeria,Sokoto,Bodinga,NGA,NGA034,NGA034002
Nigeria,Sokoto,Dange-Shnsi,NGA,NGA034,NGA034003
Nigeria,Sokoto,Goronyo,NGA,NGA034,NGA034006
Nigeria,Sokoto,Gawabawa,NGA,NGA034,NGA034005
Nigeria,Sokoto,Illela,NGA,NGA034,NGA034008
Nigeria,Sokoto,Kebbe,NGA,NGA034,NGA034010
Nigeria,Sokoto,Kware,NGA,NGA034,NGA034011
Nigeria,Sokoto,Rabah,NGA,NGA034,NGA034012
Nigeria,Sokoto,Shagari,NGA,NGA034,NGA034014
Nigeria,Sokoto,Silame,NGA,NGA034,NGA034015
Nigeria,Sokoto,Sokoto North,NGA,NGA034,NGA034016
Nigeria,Sokoto,Sokoto South,NGA,NGA034,NGA034017
Nigeria,Sokoto,Tambuwal,NGA,NGA034,NGA034018
Nigeria,Sokoto,Tureta,NGA,NGA034,NGA034020
Nigeria,Sokoto,Wamako,NGA,NGA034,NGA034021
Nigeria,Sokoto,Wurno,NGA,NGA034,NGA034022
Nigeria,Sokoto,Yabo,NGA,NGA034,NGA034023
Nigeria,Taraba,Ardo-Kola,NGA,NGA035,NGA035001
Nigeria,Taraba,Bali,NGA,NGA035,NGA035002
Nigeria,Taraba,Donga,NGA,NGA035,NGA035003
Nigeria,Taraba,Gassol,NGA,NGA035,NGA035005
Nigeria,Taraba,Ibi,NGA,NGA035,NGA035006
Nigeria,Taraba,Jalingo,NGA,NGA035,NGA035007
Nigeria,Taraba,Karin-Lamido,NGA,NGA035,NGA035008
Nigeria,Taraba,Lau,NGA,NGA035,NGA035010
Nigeria,Taraba,Wukari,NGA,NGA035,NGA035014
Nigeria,Taraba,Yorro,NGA,NGA035,NGA035015
Nigeria,Taraba,Zing,NGA,NGA035,NGA035016
Nigeria,Yobe,Bade,NGA,NGA036,NGA036001
Nigeria,Yobe,Bursari,NGA,NGA036,NGA036002
Nigeria,Yobe,Damaturu,NGA,NGA036,NGA036003
Nigeria,Yobe,Fika,NGA,NGA036,NGA036004
Nigeria,Yobe,Fune,NGA,NGA036,NGA036005
Nigeria,Yobe,Geidam,NGA,NGA036,NGA036006
Nigeria,Yobe,Gujba,NGA,NGA036,NGA036007
Nigeria,Yobe,Gulani,NGA,NGA036,NGA036008
Nigeria,Yobe,Jakusko,NGA,NGA036,NGA036009
Nigeria,Yobe,Karasuwa,NGA,NGA036,NGA036010
Nigeria,Yobe,Nangere,NGA,NGA036,NGA036012
Nigeria,Yobe,Nguru,NGA,NGA036,NGA036013
Nigeria,Yobe,Potiskum,NGA,NGA036,NGA036014
Nigeria,Yobe,Tarmua,NGA,NGA036,NGA036015
Nigeria,Zamfara,Anka,NGA,NGA037,NGA037001
Nigeria,Zamfara,Bakura,NGA,NGA037,NGA037002
Nigeria,Zamfara,Birnin Magaji,NGA,NGA037,NGA037003
Nigeria,Zamfara,Bukkuyum,NGA,NGA037,NGA037004
Nigeria,Zamfara,Bungudu,NGA,NGA037,NGA037005
Nigeria,Zamfara,Gummi,NGA,NGA037,NGA037006
Nigeria,Zamfara,Gusau,NGA,NGA037,NGA037007
Nigeria,Zamfara,Kaura-Namoda,NGA,NGA037,NGA037008
Nigeria,Zamfara,Maradun,NGA,NGA037,NGA037009
Nigeria,Zamfara,Maru,NGA,NGA037,NGA037010
Nigeria,Zamfara,Shinkafi,NGA,NGA037,NGA037011
Nigeria,Zamfara,Talata Mafara,NGA,NGA037,NGA037012
Nigeria,Zamfara,Tsafe,NGA,NGA037,NGA037013
Nigeria,Zamfara,Zurmi,NGA,NGA037,NGA037014
Nigeria,Akwa lbom,Udung Uko,NGA,NGA003,NGA003027
Nigeria,Kwara,Baruten,NGA,NGA024,NGA024002
Nigeria,Kebbi,Bagudo,NGA,NGA022,NGA022005
Nigeria,Sokoto,Gudu,NGA,NGA034,NGA034007
Nigeria,Sokoto,Tangaza,NGA,NGA034,NGA034019
Nigeria,Sokoto,Gada,NGA,NGA034,NGA034004
Nigeria,Sokoto,Sabon Birni,NGA,NGA034,NGA034013
Nigeria,Katsina,kaita,NGA,NGA021,NGA021018
Nigeria,Katsina,Jibia,NGA,NGA021,NGA021016
Nigeria,Katsina,Mashi,NGA,NGA021,NGA021027
Nigeria,Katsina,Mai'Adua,NGA,NGA021,NGA021024
Nigeria,Katsina,Zango,NGA,NGA021,NGA021034
Nigeria,Katsina,Baure,NGA,NGA021,NGA021004
Nigeria,Jigawa,Sule-Tankarkar,NGA,NGA018,NGA018025
Nigeria,Jigawa,Maigatari,NGA,NGA018,NGA018020
Nigeria,Yobe,Machina,NGA,NGA036,NGA036011
Nigeria,Yobe,Yusufari,NGA,NGA036,NGA036017
Nigeria,Yobe,Yunusari,NGA,NGA036,NGA036016
Nigeria,Borno,Mobbar,NGA,NGA008,NGA008023
Nigeria,Borno,Abadam,NGA,NGA008,NGA008001
Nigeria,Borno,Kukawa,NGA,NGA008,NGA008017
Nigeria,Borno,Monguno,NGA,NGA008,NGA008024
Nigeria,Borno,Ngala,NGA,NGA008,NGA008025
Nigeria,Borno,Kala/Balge,NGA,NGA008,NGA008015
Nigeria,Lagos,Ikorodu,NGA,NGA025,NGA025012
Nigeria,Lagos,Kosofe,NGA,NGA025,NGA025013
Nigeria,Lagos,Lagos Island,NGA,NGA025,NGA025014
Nigeria,Lagos,Lagos Mainland,NGA,NGA025,NGA025015
Nigeria,Lagos,Shomolu,NGA,NGA025,NGA025019
Nigeria,Oyo,Saki West,NGA,NGA031,NGA031032
Nigeria,Ogun,Ipokia,NGA,NGA028,NGA028014
Nigeria,Ogun,Egbado North,NGA,NGA028,NGA028004
Nigeria,Ogun,Imeko-Afon,NGA,NGA028,NGA028013
Nigeria,Oyo,Iwajowa,NGA,NGA031,NGA031018
Nigeria,Oyo,Atigbo,NGA,NGA031,NGA031004
Nigeria,Niger,Borgu,NGA,NGA027,NGA027004
Nigeria,Sokoto,Isa,NGA,NGA034,NGA034009
Nigeria,Zamfara,Zurmi,NGA,NGA037,NGA037014
Nigeria,Kebbi,Dandi,NGA,NGA022,NGA022008
Nigeria,Kebbi,Arewa-Dandi,NGA,NGA022,NGA022002
Nigeria,Borno,Bama,NGA,NGA008,NGA008003
Nigeria,Borno,Gwoza,NGA,NGA008,NGA008011
Nigeria,Adamawa,Madagali,NGA,NGA002,NGA002010
Nigeria,Adamawa,Michika,NGA,NGA002,NGA002013
Nigeria,Adamawa,Mubi North,NGA,NGA002,NGA002014
Nigeria,Adamawa,Mubi South,NGA,NGA002,NGA002015
Nigeria,Adamawa,Maiha,NGA,NGA002,NGA002011
Nigeria,Adamawa,Fufore,NGA,NGA002,NGA002002
Nigeria,Adamawa,Jada,NGA,NGA002,NGA002008
Nigeria,Adamawa,Ganaye,NGA,NGA002,NGA002003
Nigeria,Adamawa,Toungo,NGA,NGA002,NGA002019
Nigeria,Taraba,Gashaka,NGA,NGA035,NGA035004
Nigeria,Taraba,Sardauna,NGA,NGA035,NGA035011
Nigeria,Taraba,Kurmi,NGA,NGA035,NGA035009
Nigeria,Taraba,Ussa,NGA,NGA035,NGA035013
Nigeria,Taraba,Takum,NGA,NGA035,NGA035012
Nigeria,Benue,Kwande,NGA,NGA007,NGA007011
Nigeria,Cross River,Obanliku,NGA,NGA009,NGA009012
Nigeria,Cross River,Boki,NGA,NGA009,NGA009007
Nigeria,Cross River,Etung,NGA,NGA009,NGA009010
Nigeria,Cross River,Akamkpa,NGA,NGA009,NGA009002
Nigeria,Cross River,Odukpani,NGA,NGA009,NGA009015
Nigeria,Lagos,Epe,NGA,NGA025,NGA025007
Nigeria,Lagos,Ojo,NGA,NGA025,NGA025017
Nigeria,Ogun,Ogun waterside,NGA,NGA028,NGA028018
Nigeria,Rivers,Andoni,NGA,NGA033,NGA033005
Nigeria,Rivers,Bonny,NGA,NGA033,NGA033007
Nigeria,Rivers,Opobo/Nkoro,NGA,NGA033,NGA033020
Nigeria,Akwa lbom,Mbo,NGA,NGA003,NGA003017
Nigeria,Akwa lbom,Oron,NGA,NGA003,NGA003025
Nigeria,Cross River,Calabar South,NGA,NGA009,NGA009008
Nigeria,Akwa lbom,Ibeno,NGA,NGA003,NGA003008
Nigeria,Akwa lbom,Eastern Obolo,NGA,NGA003,NGA003002
Nigeria,Rivers,Degema,NGA,NGA033,NGA033008
Nigeria,Rivers,Akuku Toru,NGA,NGA033,NGA033004
Nigeria,Bayelsa,Brass,NGA,NGA006,NGA006001
Nigeria,Bayelsa,Southern Ijaw,NGA,NGA006,NGA006007
Nigeria,Bayelsa,Ekeremor,NGA,NGA006,NGA006002
Nigeria,Delta,Burutu,NGA,NGA010,NGA010004
Nigeria,Delta,Warri South West,NGA,NGA010,NGA010025
Nigeria,Delta,Warri North,NGA,NGA010,NGA010023
Nigeria,Ondo,Ilaje,NGA,NGA029,NGA029010
Nigeria,Lagos,Ibeju/Lekki,NGA,NGA025,NGA025009
Nigeria,Lagos,Amuwo-Odofin,NGA,NGA025,NGA025004
Nigeria,Lagos,Eti-Osa,NGA,NGA025,NGA025008
Nigeria,Lagos,Badagry,NGA,NGA025,NGA025006
Nigeria,Cross River,Akpabuyo,NGA,NGA009,NGA009003
Senegal,Saint Louis,Podor,SEN,SEN010,SEN010002
Senegal,Louga,Louga,SEN,SEN008,SEN008003
Senegal,Dakar,Guediawaye,SEN,SEN001,SEN001002
Senegal,Saint Louis,Dagana,SEN,SEN010,SEN010001
Senegal,Matam,Matam,SEN,SEN009,SEN009002
Senegal,Saint Louis,Saint Louis,SEN,SEN010,SEN010003
Senegal,Louga,Linguere,SEN,SEN008,SEN008002
Senegal,Matam,Ranerou,SEN,SEN009,SEN009003
Senegal,Louga,Kebemer,SEN,SEN008,SEN008001
Senegal,Matam,Kanel,SEN,SEN009,SEN009001
Senegal,Thies,Tivaouane,SEN,SEN013,SEN013003
Senegal,Tambacounda,Bakel,SEN,SEN012,SEN012001
Senegal,Diourbel,Mbacke,SEN,SEN002,SEN002003
Senegal,Diourbel,Bambey,SEN,SEN002,SEN002001
Senegal,Kaffrine,Malem Hodar,SEN,SEN004,SEN004005
Senegal,Thies,Mbour,SEN,SEN013,SEN013001
Senegal,Diourbel,Diourbel,SEN,SEN002,SEN002002
Senegal,Thies,Thies,SEN,SEN013,SEN013002
Senegal,Kaffrine,Kaffrine,SEN,SEN004,SEN004002
Senegal,Kaolack,Nioro du Rip,SEN,SEN005,SEN005003
Senegal,Tambacounda,Tambacounda,SEN,SEN012,SEN012004
Senegal,Dakar,Rufisque,SEN,SEN001,SEN001004
Senegal,Sedhiou,Sedhiou,SEN,SEN011,SEN011003
Senegal,Ziguinchor,Bignona,SEN,SEN014,SEN014001
Senegal,Kolda,Velingara,SEN,SEN007,SEN007003
Senegal,Dakar,Pikine,SEN,SEN001,SEN001003
Senegal,Dakar,Dakar,SEN,SEN001,SEN001001
Senegal,Sedhiou,Goudomp,SEN,SEN011,SEN011002
Senegal,Kedougou,Salemata,SEN,SEN006,SEN006002
Senegal,Kedougou,Kedougou,SEN,SEN006,SEN006001
Senegal,Fatick,Gossas,SEN,SEN003,SEN003003
Senegal,Tambacounda,Goudiry,SEN,SEN012,SEN012002
Senegal,Kaffrine,Koungheul,SEN,SEN004,SEN004003
Senegal,Fatick,Fatick,SEN,SEN003,SEN003001
Senegal,Kaffrine,Birkelane,SEN,SEN004,SEN004001
Senegal,Kaolack,Guinguineo,SEN,SEN005,SEN005001
Senegal,Kaolack,Kaolack,SEN,SEN005,SEN005002
Senegal,Fatick,Foundiougne,SEN,SEN003,SEN003002
Senegal,Kolda,Medina Yoro Foulah,SEN,SEN007,SEN007002
Senegal,Kedougou,Saraya,SEN,SEN006,SEN006003
Senegal,Sedhiou,Bounkiling,SEN,SEN011,SEN011001
Senegal,Kolda,Kolda,SEN,SEN007,SEN007001
Senegal,Ziguinchor,Ziguinchor,SEN,SEN014,SEN014003
Senegal,Ziguinchor,Oussouye,SEN,SEN014,SEN014002
Senegal,Tambacounda,Koumpentoum,SEN,SEN012,SEN012003
Niger,Agadez,Aderbissinat,NER,NER001,NER001001
Niger,Agadez,Arlit,NER,NER001,NER001002
Niger,Agadez,Bilma,NER,NER001,NER001003
Niger,Agadez,Iferouane,NER,NER001,NER001004
Niger,Agadez,In-Gall,NER,NER001,NER001005
Niger,Agadez,Tchirozérine,NER,NER001,NER001006
Niger,Diffa,Bosso,NER,NER002,NER002001
Niger,Diffa,Diffa,NER,NER002,NER002002
Niger,Diffa,Goudoumaria,NER,NER002,NER002003
Niger,Diffa,Maïné Soroa,NER,NER002,NER002004
Niger,Diffa,Ngourti,NER,NER002,NER002005
Niger,Diffa,N'Guigmi,NER,NER002,NER002006
Niger,Dosso,Boboye,NER,NER003,NER003001
Niger,Dosso,Dioudiou,NER,NER003,NER003002
Niger,Dosso,Doutchi,NER,NER003,NER003003
Niger,Dosso,Dosso,NER,NER003,NER003004
Niger,Dosso,Falmey,NER,NER003,NER003005
Niger,Dosso,Gaya,NER,NER003,NER003006
Niger,Dosso,Loga,NER,NER003,NER003007
Niger,Dosso,Tibiri,NER,NER003,NER003008
Niger,Maradi,Aguié,NER,NER004,NER004001
Niger,Maradi,Bermo,NER,NER004,NER004002
Niger,Maradi,Dakoro,NER,NER004,NER004003
Niger,Maradi,Gazaoua,NER,NER004,NER004004
Niger,Maradi,Guidan Roumji,NER,NER004,NER004005
Niger,Maradi,Madarounfa,NER,NER004,NER004006
Niger,Maradi,Mayahi,NER,NER004,NER004007
Niger,Maradi,Tessaoua,NER,NER004,NER004008
Niger,Tahoua,Abalak,NER,NER005,NER005001
Niger,Tahoua,Bagaroua,NER,NER005,NER005002
Niger,Tahoua,Konni,NER,NER005,NER005003
Niger,Tahoua,Bouza,NER,NER005,NER005004
Niger,Tahoua,Illela,NER,NER005,NER005005
Niger,Tahoua,Keita,NER,NER005,NER005006
Niger,Tahoua,Madaoua,NER,NER005,NER005007
Niger,Tahoua,Malbaza,NER,NER005,NER005008
Niger,Tahoua,Tahoua,NER,NER005,NER005009
Niger,Tahoua,Tassara,NER,NER005,NER005010
Niger,Tahoua,Tchintabaraden,NER,NER005,NER005011
Niger,Tahoua,Tillia,NER,NER005,NER005012
Niger,Tillabery,Abala,NER,NER006,NER006001
Niger,Tillabery,Ayerou,NER,NER006,NER006002
Niger,Tillabery,Bani Bangou,NER,NER006,NER006003
Niger,Tillabery,Bankillare,NER,NER006,NER006004
Niger,Tillabery,Filingué,NER,NER006,NER006005
Niger,Tillabery,Gotheye,NER,NER006,NER006006
Niger,Tillabery,Kollo,NER,NER006,NER006007
Niger,Tillabery,Ouallam,NER,NER006,NER006008
Niger,Tillabery,Say,NER,NER006,NER006009
Niger,Tillabery,Tagazar,NER,NER006,NER006010
Niger,Tillabery,Téra,NER,NER006,NER006011
Niger,Tillabery,Tillabéri,NER,NER006,NER006012
Niger,Tillabery,Torodi,NER,NER006,NER006013
Niger,Zinder,Tarka,NER,NER007,NER007009
Niger,Zinder,Damagaram Takaya,NER,NER007,NER007001
Niger,Zinder,Dungass,NER,NER007,NER007002
Niger,Zinder,Gouré,NER,NER007,NER007003
Niger,Zinder,Magaria,NER,NER007,NER007004
Niger,Zinder,Matameye,NER,NER007,NER007005
Niger,Zinder,Mirriah,NER,NER007,NER007006
Niger,Zinder,Takiéta,NER,NER007,NER007007
Niger,Zinder,Tanout,NER,NER007,NER007008
Niger,Zinder,Tasker,NER,NER007,NER007010
Niger,Niamey,Niamey,NER,NER008,NER008001
Chad,Batha,Batha Ouest,TCD,TCD001,TCD001001
Chad,Batha,Batha Est,TCD,TCD001,TCD001002
Chad,Batha,Fitri,TCD,TCD001,TCD001003
Chad,Borkou,Borkou,TCD,TCD002,TCD002001
Chad,Chari-Baguirmi,Baguirmi,TCD,TCD003,TCD003001
Chad,Chari-Baguirmi,Chari,TCD,TCD003,TCD003002
Chad,Chari-Baguirmi,Loug-Chari,TCD,TCD003,TCD003003
Chad,Guéra,Guera,TCD,TCD004,TCD004001
Chad,Guéra,Abtouyour,TCD,TCD004,TCD004002
Chad,Guéra,Barh-Signaka,TCD,TCD004,TCD004003
Chad,Guéra,Mangalme,TCD,TCD004,TCD004004
Chad,Hadjer-Lamis,Dagana,TCD,TCD005,TCD005001
Chad,Hadjer Lamis,Dababa,TCD,TCD005,TCD005002
Chad,Hadjer Lamis,Haraze-Al-Biar,TCD,TCD005,TCD005003
Chad,Kanem,Kanem,TCD,TCD006,TCD006001
Chad,Kanem,Nord Kanem,TCD,TCD006,TCD006002
Chad,Kanem,Wadi-Bissam,TCD,TCD006,TCD006003
Chad,Lac,Mamdi,TCD,TCD007,TCD007001
Chad,Lac,Wayi,TCD,TCD007,TCD007002
Chad,Logone Occidental,Lac Wey,TCD,TCD008,TCD008001
Chad,Logone Occidental,Dodje,TCD,TCD008,TCD008002
Chad,Logone Occidental,Gueni,TCD,TCD008,TCD008003
Chad,Logone Occidental,Ngourkosso,TCD,TCD008,TCD008004
Chad,Logone Oriental,La Pende,TCD,TCD009,TCD009001
Chad,Logone Oriental,Kouh Est,TCD,TCD009,TCD009002
Chad,Logone Oriental,Kouh Ouest,TCD,TCD009,TCD009003
Chad,Logone Oriental,La Nya,TCD,TCD009,TCD009004
Chad,Logone Oriental,La Nya Pende,TCD,TCD009,TCD009005
Chad,Logone Oriental,Monts de Lam,TCD,TCD009,TCD009006
Chad,Mandoul,Mandoul Oriental,TCD,TCD010,TCD010001
Chad,Mandoul,Barh-Sara,TCD,TCD010,TCD010002
Chad,Mandoul,Mandoul Occidental,TCD,TCD010,TCD010003
Chad,Mayo-Kebbi Est,Mayo-Boneye,TCD,TCD011,TCD011001
Chad,Mayo-Kebbi Est,Kabbia,TCD,TCD011,TCD011002
Chad,Mayo-Kebbi Est,Mayo-Lemie,TCD,TCD011,TCD011003
Chad,Mayo-Kebbi Est,Mont Illi,TCD,TCD011,TCD011004
Chad,Mayo-Kebbi Ouest,Lac Lere,TCD,TCD012,TCD012002
Chad,Mayo-Kebbi Ouest,Mayo-Binder,TCD,TCD012,TCD012003
Chad,Moyen-Chari,Grande Sido,TCD,TCD013,TCD013002
Chad,Moyen-Chari,Lac Iro,TCD,TCD013,TCD013003
Chad,Ouaddaï,Ouara,TCD,TCD014,TCD014001
Chad,Ouaddaï,Abdi,TCD,TCD014,TCD014002
Chad,Ouaddaï,Assoungha,TCD,TCD014,TCD014003
Chad,Salamat,Bahr-Azoum,TCD,TCD015,TCD015001
Chad,Salamat,Aboudeia,TCD,TCD015,TCD015002
Chad,Salamat,Haraze-Mangueigne,TCD,TCD015,TCD015003
Chad,Tandjilé,Tandjile Est,TCD,TCD016,TCD016001
Chad,Wadi Fira,Biltine,TCD,TCD017,TCD017001
Chad,Wadi Fira,Dar-Tama,TCD,TCD017,TCD017002
Chad,Wadi Fira,Kobe,TCD,TCD017,TCD017003
Chad,N'Djamena,NDjamena,TCD,TCD018,TCD018001
Chad,Barh-El-Gazel,Barh-El-Gazel Sud,TCD,TCD019,TCD019001
Chad,Barh-El-Gazel,Barh-El-Gazel Ouest,TCD,TCD019,TCD019003
Chad,Ennedi Est,Am-Djarass,TCD,TCD020,TCD020001
Chad,Ennedi Est,Wadi Hawar,TCD,TCD020,TCD020002
Chad,Sila,Kimiti,TCD,TCD021,TCD021001
Chad,Sila,Djourf Al Ahmar,TCD,TCD021,TCD021002
Chad,Tibesti,Tibesti Est,TCD,TCD022,TCD022001
Chad,Tibesti,Tibesti Ouest,TCD,TCD022,TCD022002
Chad,Ennedi Ouest,Fada,TCD,TCD023,TCD023001
Chad,Ennedi Ouest,Mourtcha,TCD,TCD023,TCD023003
Chad,Moyen-Chari,Bahr-Koh,TCD,TCD013,TCD013001
Chad,Tandjilé,Tandjile Ouest,TCD,TCD016,TCD016002
Chad,Tandjilé,Tandjile Centre,TCD,TCD016,TCD016003
Chad,Borkou,Borkou Yala,TCD,TCD002,TCD002002
Chad,Barh-El-Gazel,Barh-El-Gazel Nord,TCD,TCD019,TCD019002
Chad,Wadi Fira,Megri,TCD,TCD017,TCD017004
Chad,Mayo-Kebbi Ouest,Mayo-Dallah,TCD,TCD012,TCD012001
Chad,Lac,Fouli,TCD,TCD007,TCD007004
Chad,Lac,Kaya,TCD,TCD007,TCD007003
